<?xml version="1.0" encoding="utf-8"?>
<!-- Generator: Adobe Illustrator 25.0.0, SVG Export Plug-In . SVG Version: 6.00 Build 0)  -->
<svg version="1.1" id="Capa_1" xmlns="http://www.w3.org/2000/svg" xmlns:xlink="http://www.w3.org/1999/xlink" x="0px" y="0px"
	 viewBox="0 0 700 700" style="enable-background:new 0 0 700 700;" xml:space="preserve">
<style type="text/css">
	.st0{fill:#00B2B2;}
</style>
<path class="st0" d="M122.2,296.7c0-42.8,0-85.5,0-128.3c0-28,15.8-43.9,43.9-43.9c42.4,0,84.8,0,127.2,0c10.4,0,13.6,2.2,16.9,12
	c9.8,29,19.6,57.9,29.1,87c1.8,5.6,4.2,7.7,10.4,7.7c61.8-0.3,123.5-0.2,185.3-0.2c22.7,0,38.5,12.7,42.2,33.7
	c0.4,2.6,0.6,5.2,0.5,7.8c0,86.7,0,173.4,0,260.2c0,25.3-14.9,41.5-40.4,42.3c-24.2,0.8-48.4,0.3-72.7,0.3c-34.9,0-69.8,0-104.8,0
	c-12.9,0-15.6-1.9-19.7-14.2c-9.3-28.1-18.8-56.1-27.8-84.2c-2-6.2-5-8.5-11.6-8.5c-45.4,0.2-90.8,0.2-136.2,0.1
	c-22.1,0-37.8-12.4-41.6-32.9c-0.5-3.6-0.7-7.2-0.6-10.8C122.2,382.2,122.2,339.4,122.2,296.7z M384.5,442.4
	c-0.8-2.9-1.3-5.2-2.1-7.4c-31-92.4-61.9-184.7-92.9-277.1c-1.8-5.3-4.4-7.3-10-7.2c-30.3,0.3-60.5,0.2-90.8,0.2
	c-7.9,0-15.7-0.1-23.6,0c-11.5,0.1-16,4.7-16.2,16.3c0,1.2,0,2.4,0,3.6c0,83.7,0,167.3,0,251c-0.1,3,0.1,6,0.4,9
	c0.9,6,4.2,10,10.5,10.8c2.8,0.4,5.6,0.6,8.4,0.7c69.6,0,139.2,0,208.9,0L384.5,442.4z M375.3,548.9c1.9,0.1,2.9,0.2,3.9,0.2
	c51.5,0,103,0,154.4,0c2.6,0,5.7,0.2,7.7-1.1c3.3-2.1,6.7-4.9,8.6-8.2c1.5-2.7,1.2-6.6,1.2-10c0.1-84.3,0.1-168.6,0-252.9
	c0.1-2.6-0.1-5.2-0.5-7.8c-1.3-7-4.5-10.1-11.6-11.1c-2.4-0.3-4.8-0.4-7.2-0.3c-57.9,0-115.9,0-173.8,0h-7
	c21.9,65.1,43.4,129.2,65.2,194.2l23.4-25.5c-3.4-4.8-6.8-9.2-10-13.9c-5.4-7.9-4.5-15.7,2-20.3c6.4-4.5,13.7-2.7,19.5,4.6
	c2,2.5,3.9,4.9,6.1,7.8c9.5-13,18.1-25.8,23.2-41.4h-70.9c-2.4,0.1-4.8,0-7.3-0.2c-7.3-0.8-12.1-5.9-12.3-12.6s4.6-12.1,11.9-12.8
	c5.2-0.5,10.5-0.5,15.7-0.5c8.4-0.1,16.8,0,25.9,0c0-4.7-0.2-8.7,0-12.7c0.4-8.6,5.7-13.7,13.8-13.5c7.6,0.2,12.5,5.5,12.8,13.9
	c0.1,4,0,7.9,0,12.3c13.3,0,25.8-0.1,38.3,0c8.5,0.1,13.7,4,14.9,10.6c1.3,7.1-2.2,11.8-10.5,15.5c-2.1,0.9-4.5,3-5.2,5
	c-5.7,17.5-15.2,32.9-25.7,47.7l-7.6,10.8c6.1,6.5,11.7,12.5,17.3,18.6c6.4,6.8,6.8,14.2,1.3,19.8s-13.6,5.1-20.4-1.4
	c-5.4-5.1-10.8-10.1-15.6-14.6c-4.3,3.9-9.5,7.9-13.7,12.6c-8.5,9.6-19,10.2-26-0.9c-0.1-0.2-0.7,0-1.4-0.1L375.3,548.9z
	 M382.1,469.7h-44.4c6.3,18.7,12.3,36.8,18.8,56L382.1,469.7z"/>
<path class="st0" d="M280.7,311c-9.7-0.5-18.2-0.5-26.6-1.5c-6.8-0.8-10.5-5.4-10.8-11.8c-0.4-7.3,4.5-13.2,11.8-13.4
	c14.3-0.3,28.7-0.3,43,0c7.7,0.2,11.9,5.7,12,14.5c0.2,27.7-21.5,54.8-49.8,62c-40.5,10.3-80.4-17.6-83.6-58.4
	c-3.7-46.2,41-82,85.4-68.5c10.4,3.1,19.7,8.1,27.5,15.7c5.9,5.8,6.4,12.5,1.6,18.4c-4.5,5.6-11.9,6.4-18.4,1.8
	c-2.6-1.8-5-4.1-7.7-5.8c-18.6-12-43.3-6.8-55.5,11.7c-11.7,17.9-6.8,42,11,53.9c18.1,12.2,42.7,7.8,55.3-10
	C277.6,317.2,278.8,314.4,280.7,311z"/>
</svg>
