{
  "apellidos": "Apellidos",
  "ajustes": "Mi cuenta",
  "aceptar": "Aceptar",
  "ayudar": "Ayudar",
  "ayudale": "Ayúdale",
  "activarGps": "Activar GPS",
  "animales": "Animales",
  "bullying": "Bullying",
  "buscar": "Buscar",
  "buscarPorKm": "Hasta",
  "km": "200 Km",
  "borrar": "Borrar",
  "borrarPetitionMensajeModal": "¿Está seguro de borrar la petición activa?",
  "cancelar": "Cancelar",
  "cerrar": "Cerrar",
  "cerrarSesionMensajeModal": "¿Está seguro que desea cerrar sesion?",
  "cp": "C.P",
  "chat": "Chat",
  "chats": "Chats",
  "chatFinalizado": "Chat finalizado",
  "correo": "correo",
  "correoElectronico": "Correo electrónico",
  "correoEnviado": "Correo Enviado!",
  "correoInvalido": "Correo inválido",
  "correoError": "No se pudo enviar el correo, intentar nuevamente",
  "correoNoExiste": "Correo no existe",
  "contrasena": "Contraseña",
  "configuraciones": "Ajustes",
  "cerrarSesion": "Cerrar sesión",
  "chatDeshabilitadoPor": "Chat deshabilitado por",
  "chatExpirado": "Chat expirado",
  "compartir": "Compartir",
  "compartirHelpo": "Compartir Helpo",
  "direccion": "Dirección",
  "distancia": "Distancia",
  "distanciaSubTitulo": "Define la distancia de las solicitudes de ayuda",
  "discapacidad": "Discapacidad",
  "deDondeEres": "Origen",
  "genero": "¿Cuál es tu género?",
  "seleccionaTuGenero": "Selecciona tu género",
  "sugerencias": "Sugerencias",
  "denunciar": "Denunciar",
  "hombre": "Hombre",
  "mujer": "Mujer",
  "noBinario": "No binario",
  "donaciones": "Donaciones",
  "denunciaMensaje": "Gracias. Hemos recibido tu denuncia",
  "desnudosActividadSexual": "Desnudos o actividad sexual",
  "edad": "Edad",
  "entrar": "Login",
  "estaPidiendoAyuda": "está pidiendo ayuda",
  "empiezaUnaConversacion": "Empieza una conversacion",
  "editarPerfil": "Editar Perfil",
  "elChatEstaDeshabilitado": "El chat ha sido deshabilitado.",
  "escribeTuMensaje": "Escribe tu mensaje",
  "esperandoRespuestDeUsuario": "Esperando respuesta de Usuario",
  "enviar": "Enviar",
  "enviando": "Enviando",
  "espere": "Espere",
  "empezar": "EMPEZAR",
  "espanol": "Español",
  "estadounidense": "Estadounidense",
  "finalizar": "Finalizar",
  "frances": "Francés",
  "fraude": "Fraude",
  "laConversacionCon": "La conversacion con",
  "lenguajeOSimbolosOdio": "Lenguaje o símbolos que incitan al odio",
  "guardar": "Guardar",
  "graciasPorSuValoracion": "Gracias por su valoración!",
  "haSidoBloqueado": "ha sido bloqueado",
  "hora": "hora",
  "haFinalizado": "ha finalizado",
  "intereses": "Intereses",
  "inmigracion": "Inmigración",
  "tienesCuenta": "¿Ya tienes una cuenta?",
  "iniciarSesion": "Iniciar sesión",
  "pideAyuda": "Pide ayuda",
  "idioma": "Idioma",
  "idiomas": "Idiomas",
  "informacionFalsa": "Información falsa",
  "italiano": "Italiano",
  "ingles": "Inglés",
  "items": "Items",
  "localidad": "Localidad",
  "mostrarPerfil": "Mostrar perfil",
  "mostrarPerfilSubtitulo": "Mostrará el perfil a los usuarios que seleccionen.",
  "mensajeSeBorrara24Horas": "Este chat se borrará en 24h desde su inicio.",
  "miPerfil": "Mi Perfil",
  "miUbicacion": "Mi ubicación",
  "nombre": "Nombre",
  "nacionalidad": "Nacionalidad",
  "noMeGusta": "Nacionalidad",
  "olvidoClave": "¿Has olvidado tu contraseña?",
  "omitirIntroduccion": "Omitir introducción",
  "pais": "País",
  "perdida": "Perdida",
  "peticionActiva": "Petición Activa",
  "perfilActualizado": "Perfil Actualizado",
  "poseePeticionActiva": "Ya posee una petición activa",
  "porqueDenunciarMensaje": "Por qué quieres denunciar esta publicación",
  "quiereAyudarte": "quiere ayudarte",
  "queIdiomaHablas": "¿Qué idioma hablas?",
  "quiereHablarContigo": "quiere hablar contigo",
  "rechazar": "Rechazar",
  "reparacion": "Reparación",
  "registrate": "Regístrate",
  "registrarse": "Registrarse",
  "repetirContrasena": "Repetir contraseña",
  "recuperarContrasena": "Recuperar contraseña",
  "recuperarContrasenaMensaje": "Te enviaremos la contraseña a tu correo electrónico",
  "requerido": "Requerido",
  "todos": "Todos",
  "soloAyuda": "Solo ayuda",
  "starterTitulo1": "Estés donde estés de manera inmediata hables el idioma que hables.",
  "starterTitulo2": "¡Ayuda al resto!",
  "starterTitulo3": "y únete a la revolución de las buenas personas!",
  "satisfactoriaAyudaDe": "ha sido satisfactoria la ayuda de",
  "seleccionaTuIdioma": "Selecciona los idiomas que hablas",
  "seleccionaTuNacionalidad": "Selecciona tu origen",
  "seleccionaTusIntereses": "Selecciona lo que te interese",
  "siguiente": "Siguiente",
  "seleccione": "Seleccione",
  "solicitarAyuda": "Solicitar Ayuda",
  "salud": "Salud",
  "soloNumeros": "Solo números",
  "solicitarAyudaDescripcion": "Tu mensaje será notificado a otros usuarios \n al instante de ser enviado",
  "tuMensajeHaSidoCompartido": "Tu mensaje \n ha sido compartido",
  "tiempoRestante": "Tiempo restante",
  "tuPetticionExpiraraEn": "Tu petición expirará en",
  "tuPeticion": "Tu petición",
  "tusIntereses": "¿En qué puedes ayudar?",
  "tiempo": "Tiempo",
  "ocio": "Ocio",
  "conversacion": "Conversación",
  "laboralYEducativo": "Laboral y educativo",
  "animales": "animales",
  "comunitaria": "Comunitaria",
  "covid19": "Covid-19",
  "diversidadFuncional": "Diversidad funcional",
  "desplazamiento": "Desplazamiento",
  "apoyoEmocional": "Apoyo emocional",
  "legalYadministrativo": "Legal y administrativo",
  "alojamiento": "Alojamiento",
  "familiar": "Familiar",
  "sanitario": "Sanitario",
  "perdidas": "Pérdidas",
  "otros": "Otros",
  "tramites": "Trámites",
  "tambienPuedeRegistrarseCon": "Tambien puede registrarse con",
  "ubicacionSubtitulo": "Permitir el acceso a mi ubicación.",
  "idiomaSubtitulo": "Escoge un idioma.",
  "ubicacion": "Ubicación",
  "usuario": "Usuario",
  "valorar": "Valorar",
  "violencia": "Violencia",
  "yaAcabamos": "¡Ya acabamos!",
  "paraguay": "Paraguay",
  "senegal": "Senegal",
  "congo": "República Democrática del Congo",
  "estonia": "Estonia",
  "georgia": "Georgia",
  "ghana": "Ghana",
  "jersey": "Jersey",
  "madagascar": "Madagascar",
  "malawi": "Malawi",
  "mongolia": "Mongolia",
  "china": "China",
  "nepal": "Nepal",
  "samoa": "Samoa",
  "haiti": "Haiti",
  "islaMan": "Isla de Man",
  "costaMarfil": "Costa de Marfil",
  "lesoto": "Lesoto",
  "ruanda": "Ruanda",
  "zimbabue": "Zimbabue",
  "guineaEcuatorial": "Guinea Ecuatorial",
  "congoRepublica": "República del Congo",
  "brasil": "Brasil",
  "sriLanka": "Sri Lanka",
  "suazilandia": "Esuatini",
  "tayikistan": "Tayikistán",
  "trinidadTobago": "Trinidad y Tobago",
  "polinesiaFrancesa": "Polinesia Francesa",
  "madeira": "Madeira",
  "maldivas": "Maldivas",
  "moldavia": "Moldavia",
  "montenegro": "Montenegro",
  "papua": "Papúa Nueva Guinea",
  "mexico": "Mexico",
  "tibet": "Tibet",
  "timorOriental": "Timor Oriental",
  "libia": "libia",
  "macedonia": "Macedonia",
  "arabeSaharaui": "República Árabe Saharaui Democrática",
  "sudan": "Sudán",
  "uzbekistan": "Uzbekistán",
  "yemen": "Yemen",
  "liberia": "Liberia",
  "rusia": "Rusia",
  "liechtenstein": "Liechtenstein",
  "norteChipre": "Norte de Chipre",
  "sanMarino": "San Marino",
  "sanBartolome": "San Bartolomé",
  "curazao": "Curazao",
  "eritrea": "Eritrea",
  "guineaBasau": "Guinea-Bisáu",
  "kirguistan": "Kirguistán",
  "mali": "Mali",
  "india": "India",
  "islaMarshall": "Islas Marshall",
  "micronesia": "Micronesia",
  "niger": "Niger",
  "islaNorfolk": "Isla Norfolk",
  "santoTomePrincipe": "Santo Tomé y Príncipe",
  "sardinia": "Sardinia",
  "butan": "Bután",
  "somalia": "Somalia",
  "surinam": "Surinam",
  "islasAzores": "Islas Azores",
  "canada": "Canadá",
  "bahamas": "Bahamas",
  "togo": "Togo",
  "turkmenistan": "Turkmenistán",
  "tuvalu": "Tuvalu",
  "vaticano": "Ciudad del Vaticano",
  "austria": "Austria",
  "islasVirgenes": "Islas Vírgenes",
  "islasMalvinas": "Islas Malvinas",
  "gabon": "Gabón",
  "gibraltar": "Gibraltar",
  "paisesBajos": "Países Bajos",
  "groenlandia": "Groenlandia",
  "granada": "Granada",
  "guam": "Guam",
  "guernsey": "Guernsey",
  "guyana": "Guyana",
  "kiribati": "Kiribati",
  "kuwait": "Kuwait",
  "mauritania": "Mauritania",
  "melilla": "Melilla",
  "montserrat": "Montserrat",
  "tailandia": "Tailandia",
  "nauru": "Nauru",
  "islasMarianasNorte": "Islas Marianas del Norte",
  "osetia": "Osetia",
  "palestina": "Palestina",
  "islasPitcairn": "Islas Pitcairn",
  "saba": "Saba",
  "sanCristobalNieves": "San Cristóbal y Nieves",
  "sanEustaquio": "San Eustaquio",
  "sanMartin": "San Martín",
  "portugal": "Portugal",
  "islasSalomon": "Islas Salomón",
  "somalilandia": "Somalilandia",
  "sudanSur": "Sudán del Sur",
  "sanVicenteGranadinas": "San Vicente y las Granadinas",
  "gambia": "Gambia",
  "tokelau": "Tokelau",
  "transnistria": "Transnistria",
  "islasTurcasCaicos": "Islas Turcas y Caicos",
  "islasOrcadas": "Islas Orcadas",
  "guinea": "Guinea",
  "vietnam": "Vietnam",
  "reinoUnido": "Reino Unido",
  "kosovo": "Kosovo",
  "seychelles": "Seychelles",
  "sierraLeona": "Sierra Leona",
  "vanuatu": "Vanuatu",
  "dominica": "Dominica",
  "islasFaroe": "Islas Faroe",
  "fiji": "Fiji",
  "macao": "Macao",
  "niue": "Niue",
  "palaos": "Palaos",
  "inglaterra": "Inglaterra",
  "islaPascua": "Isla de Pascua",
  "santaLucia": "Santa Lucía",
  "tonga": "Tonga",
  "martinica": "Martinica",
  "islasGalapagos": "Islas Galápagos",
  "bulgaria": "Bulgaria",
  "croacia": "Croacia",
  "bolivia": "Bolivia",
  "camboya": "Camboya",
  "costaRica": "Costa Rica",
  "singapur": "Singapur",
  "cuba": "Cuba",
  "bangladesh": "Bangladesh",
  "botsuana": "Botsuana",
  "argelia": "Argelia",
  "azerbaiyan": "Azerbaiyán",
  "angola": "Angola",
  "columbiaBritanica": "Columbia Británica",
  "afganistan": "Afganistán",
  "armenia": "Armenia",
  "paisVasco": "País Vasco",
  "australia": "Australia",
  "burkinaFaso": "Burkina Faso",
  "albania": "Albania",
  "barein": "Baréin",
  "belice": "Belice",
  "bermudas": "Bermudas",
  "bosniaHerzegovina": "Bosnia y Herzegovina",
  "islasVirgenesBritanicas": "Islas Vírgenes Británicas",
  "barbados": "Barbados",
  "bielorrusia": "Bielorrusia",
  "bonaire": "Bonaire",
  "turquia": "Turquía",
  "brunei": "Brunéi",
  "camerun": "Camerún",
  "islasAland": "Islas Aland",
  "antiguaBarbuda": "Antigua y Barbuda",
  "burundi": "Burundi",
  "andorra": "Andorra",
  "islasBaleares": "Islas Baleares",
  "abjasia": "Abjasia",
  "aruba": "Aruba",
  "benin": "Benín",
  "polonia": "Polonia",
  "caboVerde": "Cabo Verde",
  "chad": "Chad",
  "territorioBritanicoOceanoIndico": "Territorio Británico del Océano Índico",
  "islasCaiman": "Islas Caimán",
  "republicaCentroafricana": "República Centroafricana",
  "comoras": "Comoras",
  "islasCanarias": "Islas Canarias",
  "corcega": "Córcega",
  "anguila": "Anguila",
  "suiza": "Suiza",
  "samoaAmericana": "Samoa Americana",
  "ceuta": "Ceuta",
  "islaNavidad": "Isla de Navidad",
  "islasCocos": "Islas Cocos",
  "islasCook": "Islas Cook",
  "marruecos": "Marruecos",
  "taiwan": "Taiwan",
  "egipto": "Egipto",
  "indonesia": "Indonesia",
  "estadosUnidos": "Estados Unidos",
  "filipinas": "Filipinas",
  "surAfrica": "Sur Africa",
  "peru": "Perú",
  "suecia": "Suecia",
  "dinamarca": "Dinamarca",
  "grecia": "Grecia",
  "irlanda": "Irlanda",
  "laos": "Laos",
  "emiratosArabesUnidos": "Emiratos Árabes Unidos",
  "hongKong": "Hong Kong",
  "francia": "Francia",
  "ukrania": "Ukrania",
  "argentina": "Argentina",
  "iran": "Irán",
  "colombia": "Colombia",
  "republicaCheca": "República Checa",
  "israel": "Israel",
  "arabiaSaudita": "Arabia Saudita",
  "noruega": "Noruega",
  "venezuela": "Venezuela",
  "malasia": "Malasia",
  "alemania": "Alemania",
  "belgica": "Bélgica",
  "hungria": "Hungría",
  "finlandia": "Finlandia",
  "chile": "Chile",
  "rumania": "Rumania",
  "ecuador": "Ecuador",
  "nuevaZelanda": "Nueva Zelanda",
  "panama": "Panamá",
  "eslovaquia": "Eslovaquia",
  "coreaSur": "Corea del Sur",
  "monaco": "Mónaco",
  "jordania": "Jordania",
  "islandia": "Islandia",
  "guatemala": "Guatemala",
  "siria": "Siria",
  "uruguay": "Uruguay",
  "coreaNorte": "Corea del Norte",
  "escocia": "Escocia",
  "serbia": "Serbia",
  "kazajistan": "Kazakhstan",
  "espana": "España",
  "letonia": "Letonia",
  "pakistan": "Pakistan",
  "chipre": "Chipre",
  "kenia": "Kenia",
  "myanmar": "Myanmar",
  "honduras": "Honduras",
  "jamaica": "Jamaica",
  "lituania": "Lituania",
  "hawaii": "Hawaii",
  "luxemburgo": "Luxemburgo",
  "japon": "Japón",
  "mauricio": "Mauricio",
  "namibia": "Namibia",
  "qatar": "Qatar",
  "republicaDominicana": "República Dominicana",
  "gales": "Gales",
  "zambia": "Zambia",
  "elSalvador": "El Salvador",
  "nicaragua": "Nicaragua",
  "tunez": "Túnez",
  "malta": "Malta",
  "nigeria": "Nigeria",
  "uganda": "Uganda",
  "libano": "Líbano",
  "iraq": "Iraq",
  "mozambique": "Mozambique",
  "puertoRico": "Puerto Rico",
  "eslovenia": "Eslovenia",
  "tanzania": "Tanzania",
  "oman": "Omán",
  "etiopia": "Etiopia",
  "italia": "Italia",
  "afrikáans": "Afrikáans",
  "albanés": "Albanés",
  "alemán": "Alemán",
  "amhárico": "Amhárico",
  "árabe": "Árabe",
  "armenio": "Armenio",
  "azerí": "Azerí",
  "bengalí": "Bengalí",
  "bielorruso": "Bielorruso",
  "birmano": "Birmano",
  "bosnio": "Bosnio",
  "búlgaro": "Búlgaro",
  "camboyano": "Camboyano",
  "canarés": "Canarés",
  "catalán": "Catalán",
  "cebuano": "Cebuano",
  "checo": "Checo",
  "chichewa": "Chichewa",
  "chino": "Chino",
  "cingalés": "Cingalés",
  "coreano": "Coreano",
  "corso": "Corso",
  "criollo-haitiano": "Criollo haitiano",
  "croata": "Croata",
  "danés": "Danés",
  "eslovaco": "Eslovaco",
  "esloveno": "Esloveno",
  "español": "Español",
  "esperanto": "Esperanto",
  "estonio": "Estonio",
  "euskera": "Euskera",
  "finlandés": "Finlandés",
  "francés": "Francés",
  "frisio": "Frisio",
  "gaélico-escocés": "Gaélico-escocés",
  "galés": "Galés",
  "gallego": "Gallego",
  "georgiano": "Georgiano",
  "griego": "Griego",
  "gujarati": "Gujarati",
  "hausa": "Hausa",
  "hawaiano": "Hawaiano",
  "hebreo": "Hebreo",
  "hindi": "Hindi",
  "hmong": "Hmong",
  "húngaro": "Húngaro",
  "igbo": "Igbo",
  "indonesio": "Indonesio",
  "inglés": "Inglés",
  "irlandés": "Irlandés",
  "islandés": "Islandés",
  "italiano": "Italiano",
  "japonés": "Japonés",
  "javanés": "Javanés",
  "kazajo": "Kazajo",
  "kinyarwanda": "Kinyarwanda",
  "kirguís": "Kirguís",
  "kurdo": "Kurdo",
  "lao": "Lao",
  "latín": "Latín",
  "letón": "Letón",
  "lituano": "Lituano",
  "luxemburgués": "Luxemburgués",
  "macedonio": "Macedonio",
  "malayalam": "Malayalam",
  "malayo": "Malayo",
  "malgache": "Malgache",
  "maltés": "Maltés",
  "maorí": "Maorí",
  "maratí": "Maratí",
  "mongol": "Mongol",
  "neerlandés": "Neerlandés",
  "nepalí": "Nepalí",
  "noruego": "Noruego",
  "oriya": "Oriya",
  "panyabí": "Panyabí",
  "pastún": "Pastún",
  "persa": "Persa",
  "polaco": "Polaco",
  "portugués": "Portugués",
  "rumano": "Rumano",
  "ruso": "Ruso",
  "samoano": "Samoano",
  "serbio": "Serbio",
  "sesoto": "Sesoto",
  "shona": "Shona",
  "sindhi": "Sindhi",
  "somalí": "Somalí",
  "suajili": "Suajili",
  "sueco": "Sueco",
  "sondanés": "Sondanés",
  "tagalo": "Tagalo",
  "tailandés": "Tailandés",
  "tamil": "Tamil",
  "tártaro": "Tártaro",
  "tayiko": "Tayiko",
  "telugu": "Telugu",
  "turco": "Turco",
  "turkmeno": "Turkmeno",
  "ucraniano": "Ucraniano",
  "uigur": "Uigur",
  "urdu": "Urdu",
  "uzbeco": "Uzbeco",
  "vietnamita": "Vietnamita",
  "xhosa": "Xhosa",
  "yidis": "Yidis",
  "yoruba": "Yoruba",
  "zulú": "Zulú"
}
